MINE statistics with tidymine • tidymine
…
Here are some examples.

MINE Statistics

MINE statistics get around this problem.

mlb_2008 %>%
  tidymine(salary) %>%
  arrange(-mic)
#> Warning: Problem with `mutate()` input `player`.
#> ℹ NAs introduced by coercion
#> ℹ Input `player` is `.Primitive("as.double")(player)`.
#> Warning in mask$eval_all_mutate(dots[[i]]): NAs introduced by coercion
#> # A tibble: 131 x 8
#>    variable_name mic[,"Y"] mas[,"Y"] mev[,"Y"] mcn[,"Y"] micr2[,"Y"] gmic[,"Y"]
#>    <chr>             <dbl>     <dbl>     <dbl>     <dbl>       <dbl>      <dbl>
#>  1 record_id         0.309    0.157      0.309      3.32       0.309      0.158
#>  2 h                 0.266    0.0623     0.266      2          0.166      0.184
#>  3 ld                0.263    0.0906     0.263      2.58       0.168      0.181
#>  4 tb                0.260    0.0230     0.260      2          0.138      0.181
#>  5 balls             0.259    0.0467     0.259      2          0.123      0.184
#>  6 pa                0.259    0.0603     0.259      2          0.154      0.182
#>  7 pitches           0.250    0.0316     0.250      2          0.138      0.178
#>  8 pa_2              0.249    0.0862     0.249      2          0.144      0.173
#>  9 fb                0.247    0.0683     0.247      2          0.166      0.167
#> 10 strikes           0.247    0.0483     0.247      2          0.153      0.177
#> # … with 121 more rows, and 1 more variable: tic[,"Y"] <dbl>
…
